Added Component: Designator=R2(RESC0402(1005)_L)
Add component. Clean all parameters for all variants
Add component (AddParameter): Name = "Case-EIA"; Value = "0402"; VariantName = "[No Variations]"
Add component (AddParameter): Name = "Case-Metric"; Value = "1005"; VariantName = "[No Variations]"
Add component (AddParameter): Name = "Manufacturer"; Value = "Yageo"; VariantName = "[No Variations]"
Add component (AddParameter): Name = "ManufacturerPart"; Value = "RC0402FR-07180KL"; VariantName = "[No Variations]"
Add component (AddParameter): Name = "Power"; Value = "0.063 W"; VariantName = "[No Variations]"
Add component (AddParameter): Name = "Technology"; Value = "SMT"; VariantName = "[No Variations]"
Add component (AddParameter): Name = "Tolerance"; Value = "1 %"; VariantName = "[No Variations]"
Add component (AddParameter): Name = "Value"; Value = "180000.00 Ohm"; VariantName = "[No Variations]"
Added Component: Designator=R73(RESC0402(1005)_L)
Add component. Clean all parameters for all variants
Add component (AddParameter): Name = "Case-EIA"; Value = "0402"; VariantName = "[No Variations]"
Add component (AddParameter): Name = "Case-Metric"; Value = "1005"; VariantName = "[No Variations]"
Add component (AddParameter): Name = "Manufacturer"; Value = "Yageo"; VariantName = "[No Variations]"
Add component (AddParameter): Name = "ManufacturerPart"; Value = "RC0402FR-07180KL"; VariantName = "[No Variations]"
Add component (AddParameter): Name = "Power"; Value = "0.063 W"; VariantName = "[No Variations]"
Add component (AddParameter): Name = "Technology"; Value = "SMT"; VariantName = "[No Variations]"
Add component (AddParameter): Name = "Tolerance"; Value = "1 %"; VariantName = "[No Variations]"
Add component (AddParameter): Name = "Value"; Value = "180000.00 Ohm"; VariantName = "[No Variations]"
Added Pin To Net: NetName=GND Pin=C110-2
Added Pin To Net: NetName=GND Pin=CAM2-22
Added Pin To Net: NetName=GND Pin=CN5-78
Added Pin To Net: NetName=GND Pin=CN5-84
Added Pin To Net: NetName=GND Pin=CN5-86
Added Pin To Net: NetName=GND Pin=D3-2
Added Pin To Net: NetName=GND Pin=LCD1-3
Added Pin To Net: NetName=GND Pin=LCD1-4
Added Pin To Net: NetName=NetCAM2_21 Pin=R2-1
Added Pin To Net: NetName=GND Pin=R2-2
Added Pin To Net: NetName=GND Pin=R25-2
Added Pin To Net: NetName=NetCAM2_20 Pin=R73-1
Added Pin To Net: NetName=GND Pin=R73-2
Change Net Name : Old Net Name=GND New Net Name=+3.3V
Added Member To Class: ClassName=LCD_wifi Member=Component R2 180K
Added Member To Class: ClassName=LCD_wifi Member=Component R73 180K
